[
         {
              "id"           : "service",
              "ip"           : "self-signed.badssl.com/104.154.89.105",
              "port"         : "443",
              "severity"     : "INFO",
              "finding"      : "HTTP"
          }
,         {
              "id"           : "pre_128cipher",
              "ip"           : "self-signed.badssl.com/104.154.89.105",
              "port"         : "443",
              "severity"     : "INFO",
              "finding"      : "No 128 cipher limit bug"
          }
,         {
              "id"           : "SSLv2",
              "ip"           : "self-signed.badssl.com/104.154.89.105",
              "port"         : "443",
              "severity"     : "OK",
              "finding"      : "not offered"
          }
,         {
              "id"           : "SSLv3",
              "ip"           : "self-signed.badssl.com/104.154.89.105",
              "port"         : "443",
              "severity"     : "OK",
              "finding"      : "not offered"
          }
,         {
              "id"           : "TLS1",
              "ip"           : "self-signed.badssl.com/104.154.89.105",
              "port"         : "443",
              "severity"     : "INFO",
              "finding"      : "offered"
          }
,         {
              "id"           : "TLS1_1",
              "ip"           : "self-signed.badssl.com/104.154.89.105",
              "port"         : "443",
              "severity"     : "INFO",
              "finding"      : "offered"
          }
,         {
              "id"           : "TLS1_2",
              "ip"           : "self-signed.badssl.com/104.154.89.105",
              "port"         : "443",
              "severity"     : "OK",
              "finding"      : "offered"
          }
,         {
              "id"           : "TLS1_3",
              "ip"           : "self-signed.badssl.com/104.154.89.105",
              "port"         : "443",
              "severity"     : "INFO",
              "finding"      : "not offered and downgraded to a weaker protocol"
          }
,         {
              "id"           : "NPN",
              "ip"           : "self-signed.badssl.com/104.154.89.105",
              "port"         : "443",
              "severity"     : "INFO",
              "finding"      : "offered with http/1.1 (advertised)"
          }
,         {
              "id"           : "ALPN",
              "ip"           : "self-signed.badssl.com/104.154.89.105",
              "port"         : "443",
              "severity"     : "INFO",
              "finding"      : "http/1.1"
          }
,         {
              "id"           : "cipherlist_NULL",
              "ip"           : "self-signed.badssl.com/104.154.89.105",
              "port"         : "443",
              "severity"     : "OK",
              "cwe"          : "CWE-327",
              "finding"      : "not offered"
          }
,         {
              "id"           : "cipherlist_aNULL",
              "ip"           : "self-signed.badssl.com/104.154.89.105",
              "port"         : "443",
              "severity"     : "OK",
              "cwe"          : "CWE-327",
              "finding"      : "not offered"
          }
,         {
              "id"           : "cipherlist_EXPORT",
              "ip"           : "self-signed.badssl.com/104.154.89.105",
              "port"         : "443",
              "severity"     : "OK",
              "cwe"          : "CWE-327",
              "finding"      : "not offered"
          }
,         {
              "id"           : "cipherlist_LOW",
              "ip"           : "self-signed.badssl.com/104.154.89.105",
              "port"         : "443",
              "severity"     : "OK",
              "cwe"          : "CWE-327",
              "finding"      : "not offered"
          }
,         {
              "id"           : "cipherlist_3DES_IDEA",
              "ip"           : "self-signed.badssl.com/104.154.89.105",
              "port"         : "443",
              "severity"     : "HIGH",
              "cwe"          : "CWE-310",
              "finding"      : "offered"
          }
,         {
              "id"           : "cipherlist_AVERAGE",
              "ip"           : "self-signed.badssl.com/104.154.89.105",
              "port"         : "443",
              "severity"     : "LOW",
              "cwe"          : "CWE-310",
              "finding"      : "offered"
          }
,         {
              "id"           : "cipherlist_STRONG",
              "ip"           : "self-signed.badssl.com/104.154.89.105",
              "port"         : "443",
              "severity"     : "OK",
              "finding"      : "offered"
          }
,         {
              "id"           : "PFS",
              "ip"           : "self-signed.badssl.com/104.154.89.105",
              "port"         : "443",
              "severity"     : "OK",
              "finding"      : "offered"
          }
,         {
              "id"           : "PFS_ciphers",
              "ip"           : "self-signed.badssl.com/104.154.89.105",
              "port"         : "443",
              "severity"     : "INFO",
              "finding"      : "ECDHE-RSA-AES256-GCM-SHA384 ECDHE-RSA-AES256-SHA384 ECDHE-RSA-AES256-SHA DHE-RSA-AES256-GCM-SHA384 DHE-RSA-AES256-SHA256 DHE-RSA-AES256-SHA DHE-RSA-CAMELLIA256-SHA ECDHE-RSA-AES128-GCM-SHA256 ECDHE-RSA-AES128-SHA256 ECDHE-RSA-AES128-SHA DHE-RSA-AES128-GCM-SHA256 DHE-RSA-AES128-SHA256 DHE-RSA-AES128-SHA DHE-RSA-CAMELLIA128-SHA"
          }
,         {
              "id"           : "PFS_ECDHE_curves",
              "ip"           : "self-signed.badssl.com/104.154.89.105",
              "port"         : "443",
              "severity"     : "OK",
              "finding"      : "prime256v1"
          }
,         {
              "id"           : "DH_groups",
              "ip"           : "self-signed.badssl.com/104.154.89.105",
              "port"         : "443",
              "severity"     : "OK",
              "finding"      : "Unknown DH group (2048 bits)"
          }
,         {
              "id"           : "cipher_order",
              "ip"           : "self-signed.badssl.com/104.154.89.105",
              "port"         : "443",
              "severity"     : "OK",
              "finding"      : "server"
          }
,         {
              "id"           : "protocol_negotiated",
              "ip"           : "self-signed.badssl.com/104.154.89.105",
              "port"         : "443",
              "severity"     : "OK",
              "finding"      : "Default protocol TLS1.2"
          }
,         {
              "id"           : "cipher_negotiated",
              "ip"           : "self-signed.badssl.com/104.154.89.105",
              "port"         : "443",
              "severity"     : "OK",
              "finding"      : "ECDHE-RSA-AES128-GCM-SHA256, 256 bit ECDH (P-256)"
          }
,         {
              "id"           : "cipherorder_TLSv1",
              "ip"           : "self-signed.badssl.com/104.154.89.105",
              "port"         : "443",
              "severity"     : "INFO",
              "finding"      : "ECDHE-RSA-AES128-SHA ECDHE-RSA-AES256-SHA DHE-RSA-AES128-SHA DHE-RSA-AES256-SHA ECDHE-RSA-DES-CBC3-SHA AES128-SHA AES256-SHA DES-CBC3-SHA DHE-RSA-CAMELLIA256-SHA CAMELLIA256-SHA DHE-RSA-CAMELLIA128-SHA CAMELLIA128-SHA"
          }
,         {
              "id"           : "cipherorder_TLSv1_1",
              "ip"           : "self-signed.badssl.com/104.154.89.105",
              "port"         : "443",
              "severity"     : "INFO",
              "finding"      : "ECDHE-RSA-AES128-SHA ECDHE-RSA-AES256-SHA DHE-RSA-AES128-SHA DHE-RSA-AES256-SHA ECDHE-RSA-DES-CBC3-SHA AES128-SHA AES256-SHA DES-CBC3-SHA DHE-RSA-CAMELLIA256-SHA CAMELLIA256-SHA DHE-RSA-CAMELLIA128-SHA CAMELLIA128-SHA"
          }
,         {
              "id"           : "cipherorder_TLSv1_2",
              "ip"           : "self-signed.badssl.com/104.154.89.105",
              "port"         : "443",
              "severity"     : "INFO",
              "finding"      : "ECDHE-RSA-AES128-GCM-SHA256 ECDHE-RSA-AES256-GCM-SHA384 DHE-RSA-AES128-GCM-SHA256 DHE-RSA-AES256-GCM-SHA384 ECDHE-RSA-AES128-SHA256 ECDHE-RSA-AES128-SHA ECDHE-RSA-AES256-SHA384 ECDHE-RSA-AES256-SHA DHE-RSA-AES128-SHA256 DHE-RSA-AES128-SHA DHE-RSA-AES256-SHA256 DHE-RSA-AES256-SHA ECDHE-RSA-DES-CBC3-SHA AES128-GCM-SHA256 AES256-GCM-SHA384 AES128-SHA256 AES256-SHA256 AES128-SHA AES256-SHA DES-CBC3-SHA DHE-RSA-CAMELLIA256-SHA CAMELLIA256-SHA DHE-RSA-CAMELLIA128-SHA CAMELLIA128-SHA"
          }
,         {
              "id"           : "TLS_extensions",
              "ip"           : "self-signed.badssl.com/104.154.89.105",
              "port"         : "443",
              "severity"     : "INFO",
              "finding"      : "'server name/#0' 'renegotiation info/#65281' 'EC point formats/#11' 'session ticket/#35' 'heartbeat/#15' 'next protocol/#13172' 'application layer protocol negotiation/#16'"
          }
,         {
              "id"           : "TLS_session_ticket",
              "ip"           : "self-signed.badssl.com/104.154.89.105",
              "port"         : "443",
              "severity"     : "INFO",
              "finding"      : "valid for 300 seconds only (<daily)"
          }
,         {
              "id"           : "SSL_sessionID_support",
              "ip"           : "self-signed.badssl.com/104.154.89.105",
              "port"         : "443",
              "severity"     : "INFO",
              "finding"      : "yes"
          }
,         {
              "id"           : "sessionresumption_ticket",
              "ip"           : "self-signed.badssl.com/104.154.89.105",
              "port"         : "443",
              "severity"     : "INFO",
              "finding"      : "supported"
          }
,         {
              "id"           : "sessionresumption_ID",
              "ip"           : "self-signed.badssl.com/104.154.89.105",
              "port"         : "443",
              "severity"     : "INFO",
              "finding"      : "not supported"
          }
,         {
              "id"           : "TLS_timestamp",
              "ip"           : "self-signed.badssl.com/104.154.89.105",
              "port"         : "443",
              "severity"     : "INFO",
              "finding"      : "random"
          }
,         {
              "id"           : "cert_numbers",
              "ip"           : "self-signed.badssl.com/104.154.89.105",
              "port"         : "443",
              "severity"     : "INFO",
              "finding"      : "1"
          }
,         {
              "id"           : "cert_signatureAlgorithm",
              "ip"           : "self-signed.badssl.com/104.154.89.105",
              "port"         : "443",
              "severity"     : "OK",
              "finding"      : "SHA256 with RSA"
          }
,         {
              "id"           : "cert_keySize",
              "ip"           : "self-signed.badssl.com/104.154.89.105",
              "port"         : "443",
              "severity"     : "INFO",
              "finding"      : "RSA 2048 bits"
          }
,         {
              "id"           : "cert_keyUsage",
              "ip"           : "self-signed.badssl.com/104.154.89.105",
              "port"         : "443",
              "severity"     : "INFO",
              "finding"      : "No server key usage information"
          }
,         {
              "id"           : "cert_extKeyUsage",
              "ip"           : "self-signed.badssl.com/104.154.89.105",
              "port"         : "443",
              "severity"     : "INFO",
              "finding"      : "No server extended key usage information"
          }
,         {
              "id"           : "cert_serialNumber",
              "ip"           : "self-signed.badssl.com/104.154.89.105",
              "port"         : "443",
              "severity"     : "INFO",
              "finding"      : "F9608AE39C27F4F5"
          }
,         {
              "id"           : "cert_fingerprintSHA1",
              "ip"           : "self-signed.badssl.com/104.154.89.105",
              "port"         : "443",
              "severity"     : "INFO",
              "finding"      : "7A57D3243E9D37E9C7436268EB03EB2ED8F05296"
          }
,         {
              "id"           : "cert_fingerprintSHA256",
              "ip"           : "self-signed.badssl.com/104.154.89.105",
              "port"         : "443",
              "severity"     : "INFO",
              "finding"      : "3DA723E537803D2BB37C6C6D4DB4B1F9129752E50A597BCCF2674A0B70F45154"
          }
,         {
              "id"           : "cert",
              "ip"           : "self-signed.badssl.com/104.154.89.105",
              "port"         : "443",
              "severity"     : "INFO",
              "finding"      : "-----BEGIN CERTIFICATE----- MIIDeTCCAmGgAwIBAgIJAPlgiuOcJ/T1MA0GCSqGSIb3DQEBCwUAMGIxCzAJBgNV BAYTAlVTMRMwEQYDVQQIDApDYWxpZm9ybmlhMRYwFAYDVQQHDA1TYW4gRnJhbmNp c2NvMQ8wDQYDVQQKDAZCYWRTU0wxFTATBgNVBAMMDCouYmFkc3NsLmNvbTAeFw0x ODA4MTUxNTIxNTNaFw0yMDA4MTQxNTIxNTNaMGIxCzAJBgNVBAYTAlVTMRMwEQYD VQQIDApDYWxpZm9ybmlhMRYwFAYDVQQHDA1TYW4gRnJhbmNpc2NvMQ8wDQYDVQQK DAZCYWRTU0wxFTATBgNVBAMMDCouYmFkc3NsLmNvbTCCASIwDQYJKoZIhvcNAQEB BQADggEPADCCAQoCggEBAMIE7PiM7gTCs9hQ1XBYzJMY61yoaEmwIrX5lZ6xKyx2 PmzAS2BMTOqytMAPgLaw+XLJhgL5XEFdEyt/ccRLvOmULlA3pmccYYz2QULFRtMW hyefdOsKnRFSJiFzbIRMeVXk0WvoBj1IFVKtsyjbqv9u/2CVSndrOfEk0TG23U3A xPxTuW1CrbV8/q71FdIzSOciccfCFHpsKOo3St/qbLVytH5aohbcabFXRNsKEqve ww9HdFxBIuGa+RuT5q0iBikusbpJHAwnnqP7i/dAcgCskgjZjFeEU4EFy+b+a1SY QCeFxxC7c3DvaRhBB0VVfPlkPz0sw6l865MaTIbRyoUCAwEAAaMyMDAwCQYDVR0T BAIwADAjBgNVHREEHDAaggwqLmJhZHNzbC5jb22CCmJhZHNzbC5jb20wDQYJKoZI hvcNAQELBQADggEBAKr7JtZHTDuYs8/vGDFrtXb+dkjdNsZEIgyVh4vWZtLOANtO 39wM/LwGXUSjonEsYJabJgYpRdRSex41f78QfnARJona7fkcc1aHci7jdrzsxaNJ iCc4G49ahgJ1NEIFmRNeEYlKYNNFeyGT6wxkLaV9AnC45MHlaumQyrRJwuXCQH/i 16Wk/qDtsu2nw6t+13OqwGfxR9krxDikVFO0YqgSMhqPmufz/6nY6uaXuOqzGv+P rjJZDqCoRmVMqrISIUALWGCF3yasrViM6owIEhtN71UwrFZYYOeZ9nw2wvRK210z c8LlWjgG56wRkLrq/mSINsQ3xmChO1PsBAeSHDU= -----END CERTIFICATE-----"
          }
,         {
              "id"           : "cert_commonName",
              "ip"           : "self-signed.badssl.com/104.154.89.105",
              "port"         : "443",
              "severity"     : "OK",
              "finding"      : "*.badssl.com"
          }
,         {
              "id"           : "cert_commonName_wo_SNI",
              "ip"           : "self-signed.badssl.com/104.154.89.105",
              "port"         : "443",
              "severity"     : "INFO",
              "finding"      : "badssl-fallback-unknown-subdomain-or-no-sni"
          }
,         {
              "id"           : "cert_subjectAltName",
              "ip"           : "self-signed.badssl.com/104.154.89.105",
              "port"         : "443",
              "severity"     : "INFO",
              "finding"      : "*.badssl.com badssl.com"
          }
,         {
              "id"           : "cert_caIssuers",
              "ip"           : "self-signed.badssl.com/104.154.89.105",
              "port"         : "443",
              "severity"     : "CRITICAL",
              "finding"      : "selfsigned"
          }
,         {
              "id"           : "cert_trust",
              "ip"           : "self-signed.badssl.com/104.154.89.105",
              "port"         : "443",
              "severity"     : "OK",
              "finding"      : "Ok via SAN wildcard and CN wildcard (SNI mandatory)"
          }
,         {
              "id"           : "cert_chain_of_trust",
              "ip"           : "self-signed.badssl.com/104.154.89.105",
              "port"         : "443",
              "severity"     : "CRITICAL",
              "finding"      : "failed (self signed)."
          }
,         {
              "id"           : "cert_certificatePolicies_EV",
              "ip"           : "self-signed.badssl.com/104.154.89.105",
              "port"         : "443",
              "severity"     : "INFO",
              "finding"      : "no"
          }
,         {
              "id"           : "cert_eTLS",
              "ip"           : "self-signed.badssl.com/104.154.89.105",
              "port"         : "443",
              "severity"     : "INFO",
              "finding"      : "not present"
          }
,         {
              "id"           : "cert_expirationStatus",
              "ip"           : "self-signed.badssl.com/104.154.89.105",
              "port"         : "443",
              "severity"     : "OK",
              "finding"      : "457 >= 60 days"
          }
,         {
              "id"           : "cert_notBefore",
              "ip"           : "self-signed.badssl.com/104.154.89.105",
              "port"         : "443",
              "severity"     : "INFO",
              "finding"      : "2018-08-15 17:21"
          }
,         {
              "id"           : "cert_notAfter",
              "ip"           : "self-signed.badssl.com/104.154.89.105",
              "port"         : "443",
              "severity"     : "OK",
              "finding"      : "2020-08-14 17:21"
          }
,         {
              "id"           : "cert_validityPeriod",
              "ip"           : "self-signed.badssl.com/104.154.89.105",
              "port"         : "443",
              "severity"     : "INFO",
              "finding"      : "420480 days"
          }
,         {
              "id"           : "certs_countServer",
              "ip"           : "self-signed.badssl.com/104.154.89.105",
              "port"         : "443",
              "severity"     : "INFO",
              "finding"      : "1"
          }
,         {
              "id"           : "certs_list_ordering_problem",
              "ip"           : "self-signed.badssl.com/104.154.89.105",
              "port"         : "443",
              "severity"     : "INFO",
              "finding"      : "no"
          }
,         {
              "id"           : "cert_crlDistributionPoints",
              "ip"           : "self-signed.badssl.com/104.154.89.105",
              "port"         : "443",
              "severity"     : "INFO",
              "finding"      : "--"
          }
,         {
              "id"           : "cert_ocspURL",
              "ip"           : "self-signed.badssl.com/104.154.89.105",
              "port"         : "443",
              "severity"     : "INFO",
              "finding"      : "--"
          }
,         {
              "id"           : "cert_revocation",
              "ip"           : "self-signed.badssl.com/104.154.89.105",
              "port"         : "443",
              "severity"     : "HIGH",
              "finding"      : "Neither CRL nor OCSP URI provided"
          }
,         {
              "id"           : "OCSP_stapling",
              "ip"           : "self-signed.badssl.com/104.154.89.105",
              "port"         : "443",
              "severity"     : "INFO",
              "finding"      : "not offered"
          }
,         {
              "id"           : "cert_mustStapleExtension",
              "ip"           : "self-signed.badssl.com/104.154.89.105",
              "port"         : "443",
              "severity"     : "INFO",
              "finding"      : "--"
          }
,         {
              "id"           : "DNS_CAArecord",
              "ip"           : "self-signed.badssl.com/104.154.89.105",
              "port"         : "443",
              "severity"     : "LOW",
              "finding"      : "--"
          }
,         {
              "id"           : "certificate_transparency",
              "ip"           : "self-signed.badssl.com/104.154.89.105",
              "port"         : "443",
              "severity"     : "INFO",
              "finding"      : "--"
          }
,         {
              "id"           : "HTTP_status_code",
              "ip"           : "self-signed.badssl.com/104.154.89.105",
              "port"         : "443",
              "severity"     : "INFO",
              "finding"      : "200 OK ('/')"
          }
,         {
              "id"           : "HTTP_clock_skew",
              "ip"           : "self-signed.badssl.com/104.154.89.105",
              "port"         : "443",
              "severity"     : "INFO",
              "finding"      : "+2 seconds from localtime"
          }
,         {
              "id"           : "HSTS",
              "ip"           : "self-signed.badssl.com/104.154.89.105",
              "port"         : "443",
              "severity"     : "LOW",
              "finding"      : "not offered"
          }
,         {
              "id"           : "HPKP",
              "ip"           : "self-signed.badssl.com/104.154.89.105",
              "port"         : "443",
              "severity"     : "INFO",
              "finding"      : "No support for HTTP Public Key Pinning"
          }
,         {
              "id"           : "banner_server",
              "ip"           : "self-signed.badssl.com/104.154.89.105",
              "port"         : "443",
              "severity"     : "INFO",
              "finding"      : "nginx/1.10.3 (Ubuntu)"
          }
,         {
              "id"           : "banner_application",
              "ip"           : "self-signed.badssl.com/104.154.89.105",
              "port"         : "443",
              "severity"     : "INFO",
              "finding"      : "No application banner found"
          }
,         {
              "id"           : "cookie_count",
              "ip"           : "self-signed.badssl.com/104.154.89.105",
              "port"         : "443",
              "severity"     : "INFO",
              "finding"      : "0 at '/'"
          }
,         {
              "id"           : "security_headers",
              "ip"           : "self-signed.badssl.com/104.154.89.105",
              "port"         : "443",
              "severity"     : "MEDIUM",
              "finding"      : "--"
          }
,         {
              "id"           : "banner_reverseproxy",
              "ip"           : "self-signed.badssl.com/104.154.89.105",
              "port"         : "443",
              "severity"     : "INFO",
              "cwe"          : "CWE-200",
              "finding"      : "--"
          }
,         {
              "id"           : "heartbleed",
              "ip"           : "self-signed.badssl.com/104.154.89.105",
              "port"         : "443",
              "severity"     : "OK",
              "cve"          : "CVE-2014-0160",
              "cwe"          : "CWE-119",
              "finding"      : "not vulnerable , timed out"
          }
,         {
              "id"           : "CCS",
              "ip"           : "self-signed.badssl.com/104.154.89.105",
              "port"         : "443",
              "severity"     : "OK",
              "cve"          : "CVE-2014-0224",
              "cwe"          : "CWE-310",
              "finding"      : "not vulnerable"
          }
,         {
              "id"           : "ticketbleed",
              "ip"           : "self-signed.badssl.com/104.154.89.105",
              "port"         : "443",
              "severity"     : "OK",
              "cve"          : "CVE-2016-9244",
              "cwe"          : "CWE-200",
              "finding"      : "not vulnerable"
          }
,         {
              "id"           : "ROBOT",
              "ip"           : "self-signed.badssl.com/104.154.89.105",
              "port"         : "443",
              "severity"     : "OK",
              "cve"          : "CVE-2017-17382 CVE-2017-17427 CVE-2017-17428 CVE-2017-13098 CVE-2017-1000385 CVE-2017-13099 CVE-2016-6883 CVE-2012-5081 CVE-2017-6168",
              "cwe"          : "CWE-203",
              "finding"      : "not vulnerable"
          }
,         {
              "id"           : "secure_renego",
              "ip"           : "self-signed.badssl.com/104.154.89.105",
              "port"         : "443",
              "severity"     : "OK",
              "cve"          : "CVE-2009-3555",
              "cwe"          : "CWE-310",
              "finding"      : "not vulnerable"
          }
,         {
              "id"           : "secure_client_renego",
              "ip"           : "self-signed.badssl.com/104.154.89.105",
              "port"         : "443",
              "severity"     : "OK",
              "cve"          : "CVE-2009-3555",
              "cwe"          : "CWE-310",
              "finding"      : "not vulnerable"
          }
,         {
              "id"           : "CRIME_TLS",
              "ip"           : "self-signed.badssl.com/104.154.89.105",
              "port"         : "443",
              "severity"     : "OK",
              "cve"          : "CVE-2012-4929",
              "cwe"          : "CWE-310",
              "finding"      : "not vulnerable"
          }
,         {
              "id"           : "BREACH",
              "ip"           : "self-signed.badssl.com/104.154.89.105",
              "port"         : "443",
              "severity"     : "HIGH",
              "cve"          : "CVE-2013-3587",
              "cwe"          : "CWE-310",
              "finding"      : "potentially VULNERABLE, uses gzip HTTP compression  - only supplied '/' tested"
          }
,         {
              "id"           : "POODLE_SSL",
              "ip"           : "self-signed.badssl.com/104.154.89.105",
              "port"         : "443",
              "severity"     : "OK",
              "cve"          : "CVE-2014-3566",
              "cwe"          : "CWE-310",
              "finding"      : "not vulnerable"
          }
,         {
              "id"           : "fallback_SCSV",
              "ip"           : "self-signed.badssl.com/104.154.89.105",
              "port"         : "443",
              "severity"     : "OK",
              "finding"      : "supported"
          }
,         {
              "id"           : "SWEET32",
              "ip"           : "self-signed.badssl.com/104.154.89.105",
              "port"         : "443",
              "severity"     : "LOW",
              "cve"          : "CVE-2016-2183 CVE-2016-6329",
              "cwe"          : "CWE-327",
              "finding"      : "uses 64 bit block ciphers"
          }
,         {
              "id"           : "FREAK",
              "ip"           : "self-signed.badssl.com/104.154.89.105",
              "port"         : "443",
              "severity"     : "OK",
              "cve"          : "CVE-2015-0204",
              "cwe"          : "CWE-310",
              "finding"      : "not vulnerable"
          }
,         {
              "id"           : "DROWN",
              "ip"           : "self-signed.badssl.com/104.154.89.105",
              "port"         : "443",
              "severity"     : "OK",
              "cve"          : "CVE-2016-0800 CVE-2016-0703",
              "cwe"          : "CWE-310",
              "finding"      : "not vulnerable to DROWN on this host and port"
          }
,         {
              "id"           : "DROWN",
              "ip"           : "self-signed.badssl.com/104.154.89.105",
              "port"         : "443",
              "severity"     : "INFO",
              "cve"          : "CVE-2016-0800 CVE-2016-0703",
              "cwe"          : "CWE-310",
              "finding"      : "Make sure you don't use this certificate elsewhere with SSLv2 enabled services, see https://censys.io/ipv4?q=3DA723E537803D2BB37C6C6D4DB4B1F9129752E50A597BCCF2674A0B70F45154"
          }
,         {
              "id"           : "LOGJAM",
              "ip"           : "self-signed.badssl.com/104.154.89.105",
              "port"         : "443",
              "severity"     : "OK",
              "cve"          : "CVE-2015-4000",
              "cwe"          : "CWE-310",
              "finding"      : "not vulnerable, no DH EXPORT ciphers,"
          }
,         {
              "id"           : "LOGJAM-common_primes",
              "ip"           : "self-signed.badssl.com/104.154.89.105",
              "port"         : "443",
              "severity"     : "OK",
              "cve"          : "CVE-2015-4000",
              "cwe"          : "CWE-310",
              "finding"      : "--"
          }
,         {
              "id"           : "BEAST_CBC_TLS1",
              "ip"           : "self-signed.badssl.com/104.154.89.105",
              "port"         : "443",
              "severity"     : "MEDIUM",
              "cve"          : "CVE-2011-3389",
              "cwe"          : "CWE-20",
              "finding"      : "ECDHE-RSA-AES128-SHA ECDHE-RSA-AES256-SHA DHE-RSA-AES128-SHA DHE-RSA-AES256-SHA ECDHE-RSA-DES-CBC3-SHA AES128-SHA AES256-SHA DES-CBC3-SHA DHE-RSA-CAMELLIA256-SHA CAMELLIA256-SHA DHE-RSA-CAMELLIA128-SHA CAMELLIA128-SHA"
          }
,         {
              "id"           : "BEAST",
              "ip"           : "self-signed.badssl.com/104.154.89.105",
              "port"         : "443",
              "severity"     : "LOW",
              "cve"          : "CVE-2011-3389",
              "cwe"          : "CWE-20",
              "finding"      : "VULNERABLE -- but also supports higher protocols  TLSv1.1 TLSv1.2 (likely mitigated)"
          }
,         {
              "id"           : "LUCKY13",
              "ip"           : "self-signed.badssl.com/104.154.89.105",
              "port"         : "443",
              "severity"     : "LOW",
              "cve"          : "CVE-2013-0169",
              "cwe"          : "CWE-310",
              "finding"      : "potentially vulnerable, uses TLS CBC ciphers"
          }
,         {
              "id"           : "RC4",
              "ip"           : "self-signed.badssl.com/104.154.89.105",
              "port"         : "443",
              "severity"     : "OK",
              "cve"          : "CVE-2013-2566 CVE-2015-2808",
              "cwe"          : "CWE-310",
              "finding"      : "not vulnerable"
          }
,         {
              "id"           : "cipher_xc030",
              "ip"           : "self-signed.badssl.com/104.154.89.105",
              "port"         : "443",
              "severity"     : "INFO",
              "finding"      : "xc030   ECDHE-RSA-AES256-GCM-SHA384       ECDH 256   AESGCM      256      TLS_ECDHE_RSA_WITH_AES_256_GCM_SHA384"
          }
,         {
              "id"           : "cipher_xc028",
              "ip"           : "self-signed.badssl.com/104.154.89.105",
              "port"         : "443",
              "severity"     : "INFO",
              "finding"      : "xc028   ECDHE-RSA-AES256-SHA384           ECDH 256   AES         256      TLS_ECDHE_RSA_WITH_AES_256_CBC_SHA384"
          }
,         {
              "id"           : "cipher_xc014",
              "ip"           : "self-signed.badssl.com/104.154.89.105",
              "port"         : "443",
              "severity"     : "INFO",
              "finding"      : "xc014   ECDHE-RSA-AES256-SHA              ECDH 256   AES         256      TLS_ECDHE_RSA_WITH_AES_256_CBC_SHA"
          }
,         {
              "id"           : "cipher_x9f",
              "ip"           : "self-signed.badssl.com/104.154.89.105",
              "port"         : "443",
              "severity"     : "INFO",
              "finding"      : "x9f     DHE-RSA-AES256-GCM-SHA384         DH 2048    AESGCM      256      TLS_DHE_RSA_WITH_AES_256_GCM_SHA384"
          }
,         {
              "id"           : "cipher_x6b",
              "ip"           : "self-signed.badssl.com/104.154.89.105",
              "port"         : "443",
              "severity"     : "INFO",
              "finding"      : "x6b     DHE-RSA-AES256-SHA256             DH 2048    AES         256      TLS_DHE_RSA_WITH_AES_256_CBC_SHA256"
          }
,         {
              "id"           : "cipher_x39",
              "ip"           : "self-signed.badssl.com/104.154.89.105",
              "port"         : "443",
              "severity"     : "INFO",
              "finding"      : "x39     DHE-RSA-AES256-SHA                DH 2048    AES         256      TLS_DHE_RSA_WITH_AES_256_CBC_SHA"
          }
,         {
              "id"           : "cipher_x88",
              "ip"           : "self-signed.badssl.com/104.154.89.105",
              "port"         : "443",
              "severity"     : "INFO",
              "finding"      : "x88     DHE-RSA-CAMELLIA256-SHA           DH 2048    Camellia    256      TLS_DHE_RSA_WITH_CAMELLIA_256_CBC_SHA"
          }
,         {
              "id"           : "cipher_x9d",
              "ip"           : "self-signed.badssl.com/104.154.89.105",
              "port"         : "443",
              "severity"     : "INFO",
              "finding"      : "x9d     AES256-GCM-SHA384                 RSA        AESGCM      256      TLS_RSA_WITH_AES_256_GCM_SHA384"
          }
,         {
              "id"           : "cipher_x3d",
              "ip"           : "self-signed.badssl.com/104.154.89.105",
              "port"         : "443",
              "severity"     : "INFO",
              "finding"      : "x3d     AES256-SHA256                     RSA        AES         256      TLS_RSA_WITH_AES_256_CBC_SHA256"
          }
,         {
              "id"           : "cipher_x35",
              "ip"           : "self-signed.badssl.com/104.154.89.105",
              "port"         : "443",
              "severity"     : "INFO",
              "finding"      : "x35     AES256-SHA                        RSA        AES         256      TLS_RSA_WITH_AES_256_CBC_SHA"
          }
,         {
              "id"           : "cipher_x84",
              "ip"           : "self-signed.badssl.com/104.154.89.105",
              "port"         : "443",
              "severity"     : "INFO",
              "finding"      : "x84     CAMELLIA256-SHA                   RSA        Camellia    256      TLS_RSA_WITH_CAMELLIA_256_CBC_SHA"
          }
,         {
              "id"           : "cipher_xc02f",
              "ip"           : "self-signed.badssl.com/104.154.89.105",
              "port"         : "443",
              "severity"     : "INFO",
              "finding"      : "xc02f   ECDHE-RSA-AES128-GCM-SHA256       ECDH 256   AESGCM      128      TLS_ECDHE_RSA_WITH_AES_128_GCM_SHA256"
          }
,         {
              "id"           : "cipher_xc027",
              "ip"           : "self-signed.badssl.com/104.154.89.105",
              "port"         : "443",
              "severity"     : "INFO",
              "finding"      : "xc027   ECDHE-RSA-AES128-SHA256           ECDH 256   AES         128      TLS_ECDHE_RSA_WITH_AES_128_CBC_SHA256"
          }
,         {
              "id"           : "cipher_xc013",
              "ip"           : "self-signed.badssl.com/104.154.89.105",
              "port"         : "443",
              "severity"     : "INFO",
              "finding"      : "xc013   ECDHE-RSA-AES128-SHA              ECDH 256   AES         128      TLS_ECDHE_RSA_WITH_AES_128_CBC_SHA"
          }
,         {
              "id"           : "cipher_x9e",
              "ip"           : "self-signed.badssl.com/104.154.89.105",
              "port"         : "443",
              "severity"     : "INFO",
              "finding"      : "x9e     DHE-RSA-AES128-GCM-SHA256         DH 2048    AESGCM      128      TLS_DHE_RSA_WITH_AES_128_GCM_SHA256"
          }
,         {
              "id"           : "cipher_x67",
              "ip"           : "self-signed.badssl.com/104.154.89.105",
              "port"         : "443",
              "severity"     : "INFO",
              "finding"      : "x67     DHE-RSA-AES128-SHA256             DH 2048    AES         128      TLS_DHE_RSA_WITH_AES_128_CBC_SHA256"
          }
,         {
              "id"           : "cipher_x33",
              "ip"           : "self-signed.badssl.com/104.154.89.105",
              "port"         : "443",
              "severity"     : "INFO",
              "finding"      : "x33     DHE-RSA-AES128-SHA                DH 2048    AES         128      TLS_DHE_RSA_WITH_AES_128_CBC_SHA"
          }
,         {
              "id"           : "cipher_x45",
              "ip"           : "self-signed.badssl.com/104.154.89.105",
              "port"         : "443",
              "severity"     : "INFO",
              "finding"      : "x45     DHE-RSA-CAMELLIA128-SHA           DH 2048    Camellia    128      TLS_DHE_RSA_WITH_CAMELLIA_128_CBC_SHA"
          }
,         {
              "id"           : "cipher_x9c",
              "ip"           : "self-signed.badssl.com/104.154.89.105",
              "port"         : "443",
              "severity"     : "INFO",
              "finding"      : "x9c     AES128-GCM-SHA256                 RSA        AESGCM      128      TLS_RSA_WITH_AES_128_GCM_SHA256"
          }
,         {
              "id"           : "cipher_x3c",
              "ip"           : "self-signed.badssl.com/104.154.89.105",
              "port"         : "443",
              "severity"     : "INFO",
              "finding"      : "x3c     AES128-SHA256                     RSA        AES         128      TLS_RSA_WITH_AES_128_CBC_SHA256"
          }
,         {
              "id"           : "cipher_x2f",
              "ip"           : "self-signed.badssl.com/104.154.89.105",
              "port"         : "443",
              "severity"     : "INFO",
              "finding"      : "x2f     AES128-SHA                        RSA        AES         128      TLS_RSA_WITH_AES_128_CBC_SHA"
          }
,         {
              "id"           : "cipher_x41",
              "ip"           : "self-signed.badssl.com/104.154.89.105",
              "port"         : "443",
              "severity"     : "INFO",
              "finding"      : "x41     CAMELLIA128-SHA                   RSA        Camellia    128      TLS_RSA_WITH_CAMELLIA_128_CBC_SHA"
          }
,         {
              "id"           : "cipher_xc012",
              "ip"           : "self-signed.badssl.com/104.154.89.105",
              "port"         : "443",
              "severity"     : "INFO",
              "finding"      : "xc012   ECDHE-RSA-DES-CBC3-SHA            ECDH 256   3DES        168      TLS_ECDHE_RSA_WITH_3DES_EDE_CBC_SHA"
          }
,         {
              "id"           : "cipher_x0a",
              "ip"           : "self-signed.badssl.com/104.154.89.105",
              "port"         : "443",
              "severity"     : "INFO",
              "finding"      : "x0a     DES-CBC3-SHA                      RSA        3DES        168      TLS_RSA_WITH_3DES_EDE_CBC_SHA"
          }
,         {
              "id"           : "clientsimulation-android_422",
              "ip"           : "self-signed.badssl.com/104.154.89.105",
              "port"         : "443",
              "severity"     : "INFO",
              "finding"      : "TLSv1.0 ECDHE-RSA-AES128-SHA"
          }
,         {
              "id"           : "clientsimulation-android_442",
              "ip"           : "self-signed.badssl.com/104.154.89.105",
              "port"         : "443",
              "severity"     : "INFO",
              "finding"      : "TLSv1.2 ECDHE-RSA-AES128-GCM-SHA256"
          }
,         {
              "id"           : "clientsimulation-android_500",
              "ip"           : "self-signed.badssl.com/104.154.89.105",
              "port"         : "443",
              "severity"     : "INFO",
              "finding"      : "TLSv1.2 ECDHE-RSA-AES128-GCM-SHA256"
          }
,         {
              "id"           : "clientsimulation-android_60",
              "ip"           : "self-signed.badssl.com/104.154.89.105",
              "port"         : "443",
              "severity"     : "INFO",
              "finding"      : "TLSv1.2 ECDHE-RSA-AES128-GCM-SHA256"
          }
,         {
              "id"           : "clientsimulation-android_70",
              "ip"           : "self-signed.badssl.com/104.154.89.105",
              "port"         : "443",
              "severity"     : "INFO",
              "finding"      : "TLSv1.2 ECDHE-RSA-AES128-GCM-SHA256"
          }
,         {
              "id"           : "clientsimulation-android_81",
              "ip"           : "self-signed.badssl.com/104.154.89.105",
              "port"         : "443",
              "severity"     : "INFO",
              "finding"      : "TLSv1.2 ECDHE-RSA-AES128-GCM-SHA256"
          }
,         {
              "id"           : "clientsimulation-android_90",
              "ip"           : "self-signed.badssl.com/104.154.89.105",
              "port"         : "443",
              "severity"     : "INFO",
              "finding"      : "TLSv1.2 ECDHE-RSA-AES128-GCM-SHA256"
          }
,         {
              "id"           : "clientsimulation-chrome_65_win7",
              "ip"           : "self-signed.badssl.com/104.154.89.105",
              "port"         : "443",
              "severity"     : "INFO",
              "finding"      : "TLSv1.2 ECDHE-RSA-AES128-GCM-SHA256"
          }
,         {
              "id"           : "clientsimulation-chrome_74_win10",
              "ip"           : "self-signed.badssl.com/104.154.89.105",
              "port"         : "443",
              "severity"     : "INFO",
              "finding"      : "TLSv1.2 ECDHE-RSA-AES128-GCM-SHA256"
          }
,         {
              "id"           : "clientsimulation-firefox_62_win7",
              "ip"           : "self-signed.badssl.com/104.154.89.105",
              "port"         : "443",
              "severity"     : "INFO",
              "finding"      : "TLSv1.2 ECDHE-RSA-AES128-GCM-SHA256"
          }
,         {
              "id"           : "clientsimulation-firefox_66_win81",
              "ip"           : "self-signed.badssl.com/104.154.89.105",
              "port"         : "443",
              "severity"     : "INFO",
              "finding"      : "TLSv1.2 ECDHE-RSA-AES128-GCM-SHA256"
          }
,         {
              "id"           : "clientsimulation-ie_6_xp",
              "ip"           : "self-signed.badssl.com/104.154.89.105",
              "port"         : "443",
              "severity"     : "INFO",
              "finding"      : "No connection"
          }
,         {
              "id"           : "clientsimulation-ie_7_vista",
              "ip"           : "self-signed.badssl.com/104.154.89.105",
              "port"         : "443",
              "severity"     : "INFO",
              "finding"      : "TLSv1.0 ECDHE-RSA-AES128-SHA"
          }
,         {
              "id"           : "clientsimulation-ie_8_win7",
              "ip"           : "self-signed.badssl.com/104.154.89.105",
              "port"         : "443",
              "severity"     : "INFO",
              "finding"      : "TLSv1.0 ECDHE-RSA-AES128-SHA"
          }
,         {
              "id"           : "clientsimulation-ie_8_xp",
              "ip"           : "self-signed.badssl.com/104.154.89.105",
              "port"         : "443",
              "severity"     : "INFO",
              "finding"      : "TLSv1.0 DES-CBC3-SHA"
          }
,         {
              "id"           : "clientsimulation-ie_11_win7",
              "ip"           : "self-signed.badssl.com/104.154.89.105",
              "port"         : "443",
              "severity"     : "INFO",
              "finding"      : "TLSv1.2 DHE-RSA-AES128-GCM-SHA256"
          }
,         {
              "id"           : "clientsimulation-ie_11_win81",
              "ip"           : "self-signed.badssl.com/104.154.89.105",
              "port"         : "443",
              "severity"     : "INFO",
              "finding"      : "TLSv1.2 DHE-RSA-AES128-GCM-SHA256"
          }
,         {
              "id"           : "clientsimulation-ie_11_winphone81",
              "ip"           : "self-signed.badssl.com/104.154.89.105",
              "port"         : "443",
              "severity"     : "INFO",
              "finding"      : "TLSv1.2 ECDHE-RSA-AES128-SHA256"
          }
,         {
              "id"           : "clientsimulation-ie_11_win10",
              "ip"           : "self-signed.badssl.com/104.154.89.105",
              "port"         : "443",
              "severity"     : "INFO",
              "finding"      : "TLSv1.2 ECDHE-RSA-AES128-GCM-SHA256"
          }
,         {
              "id"           : "clientsimulation-edge_15_win10",
              "ip"           : "self-signed.badssl.com/104.154.89.105",
              "port"         : "443",
              "severity"     : "INFO",
              "finding"      : "TLSv1.2 ECDHE-RSA-AES128-GCM-SHA256"
          }
,         {
              "id"           : "clientsimulation-edge_17_win10",
              "ip"           : "self-signed.badssl.com/104.154.89.105",
              "port"         : "443",
              "severity"     : "INFO",
              "finding"      : "TLSv1.2 ECDHE-RSA-AES128-GCM-SHA256"
          }
,         {
              "id"           : "clientsimulation-opera_60_win10",
              "ip"           : "self-signed.badssl.com/104.154.89.105",
              "port"         : "443",
              "severity"     : "INFO",
              "finding"      : "TLSv1.2 ECDHE-RSA-AES128-GCM-SHA256"
          }
,         {
              "id"           : "clientsimulation-safari_9_ios9",
              "ip"           : "self-signed.badssl.com/104.154.89.105",
              "port"         : "443",
              "severity"     : "INFO",
              "finding"      : "TLSv1.2 ECDHE-RSA-AES128-GCM-SHA256"
          }
,         {
              "id"           : "clientsimulation-safari_9_osx1011",
              "ip"           : "self-signed.badssl.com/104.154.89.105",
              "port"         : "443",
              "severity"     : "INFO",
              "finding"      : "TLSv1.2 ECDHE-RSA-AES128-GCM-SHA256"
          }
,         {
              "id"           : "clientsimulation-safari_10_osx1012",
              "ip"           : "self-signed.badssl.com/104.154.89.105",
              "port"         : "443",
              "severity"     : "INFO",
              "finding"      : "TLSv1.2 ECDHE-RSA-AES128-GCM-SHA256"
          }
,         {
              "id"           : "clientsimulation-apple_ats_9_ios9",
              "ip"           : "self-signed.badssl.com/104.154.89.105",
              "port"         : "443",
              "severity"     : "INFO",
              "finding"      : "TLSv1.2 ECDHE-RSA-AES128-GCM-SHA256"
          }
,         {
              "id"           : "clientsimulation-tor_1709_win7",
              "ip"           : "self-signed.badssl.com/104.154.89.105",
              "port"         : "443",
              "severity"     : "INFO",
              "finding"      : "TLSv1.0 ECDHE-RSA-AES128-SHA"
          }
,         {
              "id"           : "clientsimulation-java_6u45",
              "ip"           : "self-signed.badssl.com/104.154.89.105",
              "port"         : "443",
              "severity"     : "INFO",
              "finding"      : "No connection"
          }
,         {
              "id"           : "clientsimulation-java_7u25",
              "ip"           : "self-signed.badssl.com/104.154.89.105",
              "port"         : "443",
              "severity"     : "INFO",
              "finding"      : "TLSv1.0 ECDHE-RSA-AES128-SHA"
          }
,         {
              "id"           : "clientsimulation-java_8u161",
              "ip"           : "self-signed.badssl.com/104.154.89.105",
              "port"         : "443",
              "severity"     : "INFO",
              "finding"      : "TLSv1.2 ECDHE-RSA-AES128-GCM-SHA256"
          }
,         {
              "id"           : "clientsimulation-java_904",
              "ip"           : "self-signed.badssl.com/104.154.89.105",
              "port"         : "443",
              "severity"     : "INFO",
              "finding"      : "TLSv1.2 ECDHE-RSA-AES128-GCM-SHA256"
          }
,         {
              "id"           : "clientsimulation-openssl_101l",
              "ip"           : "self-signed.badssl.com/104.154.89.105",
              "port"         : "443",
              "severity"     : "INFO",
              "finding"      : "TLSv1.2 ECDHE-RSA-AES128-GCM-SHA256"
          }
,         {
              "id"           : "clientsimulation-openssl_102e",
              "ip"           : "self-signed.badssl.com/104.154.89.105",
              "port"         : "443",
              "severity"     : "INFO",
              "finding"      : "TLSv1.2 ECDHE-RSA-AES128-GCM-SHA256"
          }
,         {
              "id"           : "clientsimulation-openssl_110j",
              "ip"           : "self-signed.badssl.com/104.154.89.105",
              "port"         : "443",
              "severity"     : "INFO",
              "finding"      : "TLSv1.2 ECDHE-RSA-AES128-GCM-SHA256"
          }
,         {
              "id"           : "clientsimulation-openssl_111b",
              "ip"           : "self-signed.badssl.com/104.154.89.105",
              "port"         : "443",
              "severity"     : "INFO",
              "finding"      : "TLSv1.2 ECDHE-RSA-AES128-GCM-SHA256"
          }
,         {
              "id"           : "clientsimulation-thunderbird_60_6_1",
              "ip"           : "self-signed.badssl.com/104.154.89.105",
              "port"         : "443",
              "severity"     : "INFO",
              "finding"      : "TLSv1.2 ECDHE-RSA-AES128-GCM-SHA256"
          }
,         {
              "id"           : "scanTime",
              "ip"           : "self-signed.badssl.com/104.154.89.105",
              "port"         : "443",
              "severity"     : "INFO",
              "finding"      : "184"
          }
]
